\relax 
\@writefile{lof}{\addvspace {10pt}}
\@writefile{lot}{\addvspace {10pt}}
\@writefile{toc}{\contentsline {chapter}{Dedicatória e Epígrafe, \emph  {por }}{9}}
\@writefile{lof}{\addvspace {10pt}}
\@writefile{lot}{\addvspace {10pt}}
\@writefile{toc}{\contentsline {chapter}{Apresentação, \emph  {por Benedito Nunes}}{11}}
\@writefile{lof}{\addvspace {10pt}}
\@writefile{lot}{\addvspace {10pt}}
\@writefile{toc}{\contentsline {chapter}{Ficção, \emph  {por }}{15}}
\@writefile{toc}{\contentsline {section}{}{15}}
\@writefile{toc}{\contentsline {section}{\begingroup \normalfont  \textsc  {\MakeTextLowercase  {DESLOCAMENTO}}\endgroup }{15}}
\@writefile{lof}{\addvspace {10pt}}
\@writefile{lot}{\addvspace {10pt}}
\@writefile{toc}{\contentsline {chapter}{Poema }{43}}
\@writefile{toc}{\contentsline {subsection}{}{43}}
\@writefile{lof}{\addvspace {10pt}}
\@writefile{lot}{\addvspace {10pt}}
\@writefile{toc}{\contentsline {chapter}{Notas de um diário sobre o exílio, \emph  {por }}{45}}
\@writefile{toc}{\contentsline {section}{\begingroup \normalfont  \textsc  {\MakeTextLowercase  {PENSAMENTO}}\endgroup  \begingroup \normalfont  \textsc  {\MakeTextLowercase  {INABITÁVEL}}\endgroup }{45}}
\@writefile{toc}{\contentsline {section}{\begingroup \normalfont  \textsc  {\MakeTextLowercase  {TOPOGRAFIA}}\endgroup  \begingroup \normalfont  \textsc  {\MakeTextLowercase  {DA}}\endgroup  \begingroup \normalfont  \textsc  {\MakeTextLowercase  {OUTRA}}\endgroup  \begingroup \normalfont  \textsc  {\MakeTextLowercase  {MORTE}}\endgroup }{45}}
\@writefile{toc}{\contentsline {section}{\begingroup \normalfont  \textsc  {\MakeTextLowercase  {EXÍLIO}}\endgroup }{46}}
\@writefile{toc}{\contentsline {section}{\begingroup \normalfont  \textsc  {\MakeTextLowercase  {TEMPORALIDADE}}\endgroup  \begingroup \normalfont  \textsc  {\MakeTextLowercase  {DO}}\endgroup  \begingroup \normalfont  \textsc  {\MakeTextLowercase  {EXILADO}}\endgroup  E ``\begingroup \normalfont  \textsc  {\MakeTextLowercase  {LOCAL}}\endgroup -\begingroup \normalfont  \textsc  {\MakeTextLowercase  {DE}}\endgroup -\begingroup \normalfont  \textsc  {\MakeTextLowercase  {ESPERA}}\endgroup ''}{46}}
\@writefile{toc}{\contentsline {section}{\begingroup \normalfont  \textsc  {\MakeTextLowercase  {PRIS}}\endgroup ÃO \begingroup \normalfont  \textsc  {\MakeTextLowercase  {DA}}\endgroup  \begingroup \normalfont  \textsc  {\MakeTextLowercase  {DISTÂNCIA}}\endgroup }{47}}
\@writefile{toc}{\contentsline {section}{\begingroup \normalfont  \textsc  {\MakeTextLowercase  {CANSAÇO}}\endgroup  \begingroup \normalfont  \textsc  {\MakeTextLowercase  {DEMIÚRGICO}}\endgroup }{47}}
\@writefile{toc}{\contentsline {section}{\begingroup \normalfont  \textsc  {\MakeTextLowercase  {SIMULACRO}}\endgroup  \begingroup \normalfont  \textsc  {\MakeTextLowercase  {DE}}\endgroup  \begingroup \normalfont  \textsc  {\MakeTextLowercase  {DURAÇ}}\endgroup ÃO}{47}}
\@writefile{toc}{\contentsline {section}{\begingroup \normalfont  \textsc  {\MakeTextLowercase  {ELOGIO}}\endgroup  \begingroup \normalfont  \textsc  {\MakeTextLowercase  {DO}}\endgroup  \begingroup \normalfont  \textsc  {\MakeTextLowercase  {SILÊNCIO}}\endgroup }{48}}
\@writefile{toc}{\contentsline {section}{\begingroup \normalfont  \textsc  {\MakeTextLowercase  {PALAVRA}}\endgroup  \begingroup \normalfont  \textsc  {\MakeTextLowercase  {QUE}}\endgroup  \begingroup \normalfont  \textsc  {\MakeTextLowercase  {TE}}\endgroup  \begingroup \normalfont  \textsc  {\MakeTextLowercase  {DEVOLVA}}\endgroup }{48}}
\@writefile{toc}{\contentsline {section}{\begingroup \normalfont  \textsc  {\MakeTextLowercase  {LIMITE}}\endgroup }{48}}
\@writefile{toc}{\contentsline {section}{O ``\begingroup \normalfont  \textsc  {\MakeTextLowercase  {LADO}}\endgroup  \begingroup \normalfont  \textsc  {\MakeTextLowercase  {DE}}\endgroup  \begingroup \normalfont  \textsc  {\MakeTextLowercase  {FORA}}\endgroup ''}{49}}
\@writefile{toc}{\contentsline {section}{O \begingroup \normalfont  \textsc  {\MakeTextLowercase  {RETORNO}}\endgroup  À \begingroup \normalfont  \textsc  {\MakeTextLowercase  {ENFERMIDADE}}\endgroup }{49}}
\@writefile{toc}{\contentsline {section}{\begingroup \normalfont  \textsc  {\MakeTextLowercase  {PROVÍNCIAS}}\endgroup }{50}}
\@writefile{toc}{\contentsline {section}{\begingroup \normalfont  \textsc  {\MakeTextLowercase  {HERANÇA}}\endgroup }{50}}
\@writefile{toc}{\contentsline {section}{O \begingroup \normalfont  \textsc  {\MakeTextLowercase  {MESMO}}\endgroup }{50}}
\@writefile{toc}{\contentsline {section}{\begingroup \normalfont  \textsc  {\MakeTextLowercase  {REMEMORAÇ}}\endgroup ÃO \begingroup \normalfont  \textsc  {\MakeTextLowercase  {DE}}\endgroup  \begingroup \normalfont  \textsc  {\MakeTextLowercase  {UM}}\endgroup  \begingroup \normalfont  \textsc  {\MakeTextLowercase  {DESASTRE}}\endgroup }{51}}
\@writefile{toc}{\contentsline {section}{\begingroup \normalfont  \textsc  {\MakeTextLowercase  {NOMEAR}}\endgroup  O \begingroup \normalfont  \textsc  {\MakeTextLowercase  {DESEJO}}\endgroup }{51}}
\@writefile{toc}{\contentsline {section}{\begingroup \normalfont  \textsc  {\MakeTextLowercase  {SABER}}\endgroup  O \begingroup \normalfont  \textsc  {\MakeTextLowercase  {FUNDAMENTO}}\endgroup }{51}}
\@writefile{toc}{\contentsline {section}{O \begingroup \normalfont  \textsc  {\MakeTextLowercase  {ENCONTRO}}\endgroup }{51}}
\@writefile{toc}{\contentsline {section}{\begingroup \normalfont  \textsc  {\MakeTextLowercase  {TUDO}}\endgroup  É \begingroup \normalfont  \textsc  {\MakeTextLowercase  {EXÍLIO}}\endgroup }{51}}
\@writefile{toc}{\contentsline {section}{\begingroup \normalfont  \textsc  {\MakeTextLowercase  {NORAS}}\endgroup  \begingroup \normalfont  \textsc  {\MakeTextLowercase  {DE}}\endgroup  \begingroup \normalfont  \textsc  {\MakeTextLowercase  {UM}}\endgroup  \begingroup \normalfont  \textsc  {\MakeTextLowercase  {DIÁRIO}}\endgroup }{52}}
\@writefile{toc}{\contentsline {section}{\begingroup \normalfont  \textsc  {\MakeTextLowercase  {DINO}}\endgroup  \begingroup \normalfont  \textsc  {\MakeTextLowercase  {BUZZATI}}\endgroup }{53}}
\@writefile{toc}{\contentsline {section}{\begingroup \normalfont  \textsc  {\MakeTextLowercase  {GUIMAR}}\endgroup Ã\begingroup \normalfont  \textsc  {\MakeTextLowercase  {ES}}\endgroup  \begingroup \normalfont  \textsc  {\MakeTextLowercase  {ROSA}}\endgroup }{53}}
\@writefile{toc}{\contentsline {section}{\begingroup \normalfont  \textsc  {\MakeTextLowercase  {ÊXODO}}\endgroup }{53}}
\@writefile{toc}{\contentsline {section}{\begingroup \normalfont  \textsc  {\MakeTextLowercase  {FORTUNA}}\endgroup }{54}}
\@writefile{toc}{\contentsline {section}{\begingroup \normalfont  \textsc  {\MakeTextLowercase  {INTRODUÇ}}\endgroup ÃO À \begingroup \normalfont  \textsc  {\MakeTextLowercase  {PSICANÁLISE}}\endgroup }{54}}
\@writefile{toc}{\contentsline {section}{\begingroup \normalfont  \textsc  {\MakeTextLowercase  {DESAMPARO}}\endgroup }{54}}
\@writefile{toc}{\contentsline {section}{\begingroup \normalfont  \textsc  {\MakeTextLowercase  {PRIMEIRO}}\endgroup  \begingroup \normalfont  \textsc  {\MakeTextLowercase  {POEMA}}\endgroup  \begingroup \normalfont  \textsc  {\MakeTextLowercase  {DO}}\endgroup  \begingroup \normalfont  \textsc  {\MakeTextLowercase  {OUTRO}}\endgroup }{55}}
\@writefile{toc}{\contentsline {section}{\begingroup \normalfont  \textsc  {\MakeTextLowercase  {SEGUNDO}}\endgroup  \begingroup \normalfont  \textsc  {\MakeTextLowercase  {POEMA}}\endgroup  \begingroup \normalfont  \textsc  {\MakeTextLowercase  {DO}}\endgroup  \begingroup \normalfont  \textsc  {\MakeTextLowercase  {OUTRO}}\endgroup }{55}}
\@writefile{toc}{\contentsline {section}{\begingroup \normalfont  \textsc  {\MakeTextLowercase  {TERCEIRO}}\endgroup  \begingroup \normalfont  \textsc  {\MakeTextLowercase  {POEMA}}\endgroup  \begingroup \normalfont  \textsc  {\MakeTextLowercase  {DO}}\endgroup  \begingroup \normalfont  \textsc  {\MakeTextLowercase  {OUTRO}}\endgroup }{55}}
\@writefile{toc}{\contentsline {section}{\begingroup \normalfont  \textsc  {\MakeTextLowercase  {QUARTO}}\endgroup  \begingroup \normalfont  \textsc  {\MakeTextLowercase  {POEMA}}\endgroup  \begingroup \normalfont  \textsc  {\MakeTextLowercase  {DO}}\endgroup  \begingroup \normalfont  \textsc  {\MakeTextLowercase  {OUTRO}}\endgroup }{56}}
\@writefile{toc}{\contentsline {section}{\begingroup \normalfont  \textsc  {\MakeTextLowercase  {COMBATE}}\endgroup }{56}}
\@writefile{toc}{\contentsline {section}{\begingroup \normalfont  \textsc  {\MakeTextLowercase  {MARGEM}}\endgroup }{56}}
\@writefile{toc}{\contentsline {section}{\begingroup \normalfont  \textsc  {\MakeTextLowercase  {DIAGNÓSTICO}}\endgroup }{57}}
