\select@language {brazilian}
\contentsline {part}{{\def \penalty -\@M {}Sabedoria do Nunca}}{9}
\contentsline {chapter}{Apresentação}{11}
\contentsline {subsection}{}{11}
\contentsline {chapter}{Ficção}{15}
\contentsline {subsection}{}{15}
\contentsline {section}{\begingroup \normalfont \textsc {\MakeTextLowercase {DESLOCAMENTO}}\endgroup }{15}
\contentsline {chapter}{Poema\linespread {1.0}\unhbox \voidb@x \hbox {}\Footnote {{\relax \fontsize {17.28}{22}\selectfont \raisebox {-3pt}{$^\ast $}}}{Estes textos podem ser lidos como pensamentos e notas de Z.} }{43}
\contentsline {subsection}{}{43}
\contentsfinish 
